{
    "trademarkList": [
        {
            "tmId": 1,
            "tmName": "索尼（SONY）",
            "tmImg": ""
        },
        {
            "tmId": 2,
            "tmName": "TCL",
            "tmImg": ""
        },
        {
            "tmId": 3,
            "tmName": "长虹（CHANGHONG）",
            "tmImg": ""
        },
        {
            "tmId": 4,
            "tmName": "飞利浦（PHILIPS）",
            "tmImg": ""
        },
        {
            "tmId": 5,
            "tmName": "风行电视",
            "tmImg": ""
        },
        {
            "tmId": 6,
            "tmName": "",
            "tmImg": "/images/search/phone06.png"
        },
        {
            "tmId": 7,
            "tmName": "",
            "tmImg": "/images/search/phone07.png"
        },
        {
            "tmId": 8,
            "tmName": "",
            "tmImg": "/images/search/phone08.png"
        },
        {
            "tmId": 9,
            "tmName": "",
            "tmImg": "/images/search/phone09.png"
        },
        {
            "tmId": 10,
            "tmName": "",
            "tmImg": "/images/search/phone10.png"
        },
        {
            "tmId": 11,
            "tmName": "",
            "tmImg": "/images/search/phone11.png"
        },
        {
            "tmId": 12,
            "tmName": "",
            "tmImg": "/images/search/phone12.png"
        },
        {
            "tmId": 13,
            "tmName": "",
            "tmImg": "/images/search/phone12.png"
        },
        {
            "tmId": 14,
            "tmName": "",
            "tmImg": "/images/search/phone14.png"
        },
        {
            "tmId": 15,
            "tmName": "",
            "tmImg": "/images/search/phone01.png"
        },
        {
            "tmId": 16,
            "tmName": "",
            "tmImg": "/images/search/phone06.png"
        },
        {
            "tmId": 17,
            "tmName": "",
            "tmImg": "/images/search/phone07.png"
        },
        {
            "tmId": 18,
            "tmName": "",
            "tmImg": "/images/search/phone02.png"
        }
    ],
    "attrsList": [
        {
            "attrId": 1,
            "attrValueList": [
                "GSM（移动/联通2G）",
                "电信2G",
                "电信3G",
                "移动3G",
                "联通3G",
                "联通4G",
                "电信3G",
                "移动3G",
                "联通3G",
                "联通4G"
            ],
            "attrName": "网络制式"
        },
        {
            "attrId": 2,
            "attrValueList": [
                "4500-11999",
                "2800-4499",
                "1800-2799",
                "0-1799"
            ],
            "attrName": "价格"
        },
        {
            "attrId": 3,
            "attrValueList": [
                "4.0-4.9英寸",
                "4.0-4.9英寸"
            ],
            "attrName": "显示屏尺寸"
        },
        {
            "attrId": 4,
            "attrValueList": [
                "1200万以上",
                "800-1199万",
                "1200-1599万",
                "1600万以上",
                "无摄像头"
            ],
            "attrName": "摄像头像素"
        },
        {
            "attrId": 5,
            "attrValueList": [
                "特点",
                "系统",
                "手机内存",
                "单卡双卡",
                "其他"
            ],
            "attrName": "更多筛选项"
        }
    ],
    "goodsList": [
        {
            "id": 1,
            "defaultImg": "/images/search/mobile01.png",
            "title": "Apple iPhone 1",
            "price": 5499
        },
        {
            "id": 2,
            "defaultImg": "/images/search/mobile02.png",
            "title": "Apple iPhone 2",
            "price": 5499
        },
        {
            "id": 3,
            "defaultImg": "/images/search/mobile03.png",
            "title": "Apple iPhone 3",
            "price": 5499
        },
        {
            "id": 4,
            "defaultImg": "/images/search/mobile04.png",
            "title": "Apple iPhone 4",
            "price": 5499
        },
        {
            "id": 5,
            "defaultImg": "/images/search/mobile01.png",
            "title": "Apple iPhone 5",
            "price": 5499
        },
        {
            "id": 6,
            "defaultImg": "/images/search/mobile02.png",
            "title": "Apple iPhone 6",
            "price": 5499
        },
        {
            "id": 7,
            "defaultImg": "/images/search/mobile03.png",
            "title": "Apple iPhone 7",
            "price": 5499
        },
        {
            "id": 8,
            "defaultImg": "/images/search/mobile04.png",
            "title": "Apple iPhone 8",
            "price": 5499
        },
        {
            "id": 9,
            "defaultImg": "/images/search/mobile01.png",
            "title": "Apple iPhone 9",
            "price": 5499
        },
        {
            "id": 10,
            "defaultImg": "/images/search/mobile02.png",
            "title": "Apple iPhone 10",
            "price": 5499
        },
        {
            "id": 11,
            "defaultImg": "/images/search/mobile03.png",
            "title": "Apple iPhone 11",
            "price": 5499
        },
        {
            "id": 12,
            "defaultImg": "/images/search/mobile04.png",
            "title": "Apple iPhone 12",
            "price": 5499
        },
        {
            "id": 13,
            "defaultImg": "/images/search/mobile02.png",
            "title": "Apple iPhone 13",
            "price": 5499
        },
        {
            "id": 14,
            "defaultImg": "/images/search/mobile01.png",
            "title": "Apple iPhone 14",
            "price": 5499
        }
    ],
    "total": 1234,
    "pageSize": 2,
    "pageNo": 1,
    "totalPages": 4
}